0 info it worked if it ends with ok
1 verbose cli [ '/home/ec2-user/.nvm/versions/node/v6.16.0/bin/node',
1 verbose cli   '/home/ec2-user/.nvm/versions/node/v6.16.0/bin/npm',
1 verbose cli   'config',
1 verbose cli   'get',
1 verbose cli   'prefix' ]
2 info using npm@3.10.10
3 info using node@v6.16.0
4 verbose config Skipping project config: /home/ec2-user/.npmrc. (matches userconfig)
5 verbose exit [ 0, true ]
6 verbose stack Error: write EPIPE
6 verbose stack     at exports._errnoException (util.js:1020:11)
6 verbose stack     at WriteWrap.afterWrite (net.js:806:14)
7 verbose cwd /home/ec2-user/environment
8 error Linux 4.14.94-73.73.amzn1.x86_64
9 error argv "/home/ec2-user/.nvm/versions/node/v6.16.0/bin/node" "/home/ec2-user/.nvm/versions/node/v6.16.0/bin/npm" "config" "get" "prefix"
10 error node v6.16.0
11 error npm  v3.10.10
12 error code EPIPE
13 error errno EPIPE
14 error syscall write
15 error write EPIPE
16 error If you need help, you may report this error at:
16 error     <https://github.com/npm/npm/issues>
17 verbose exit [ 1, true ]
